struct {
        std::uint32_t startupTimestamp = 0;
        std::uint32_t lastResetCause = 0;
        std::int8_t framFM22L16_drv = 0;
        std::int8_t flashMT25Q_drv = 0;
        std::int8_t fram512k_partition1 = 0;
        std::int8_t flash256MB_partition = 0;
        std::int8_t intFlash1MB_partition = 0;
        std::uint8_t flashApp = 0;
        std::uint8_t can1App = 0;
        std::uint8_t can2App = 0;
        std::uint8_t uart1App = 0;
        std::uint8_t uart4App = 0;
        std::uint8_t spi1MasterApp = 0;
        std::uint8_t spi5MasterApp = 0;
        std::uint8_t i2c1MasterApp = 0;
        std::uint8_t i2c2MasterApp = 0;
        std::uint8_t i2c3MasterApp = 0;
        std::uint8_t i2c4MasterApp = 0;
        std::uint8_t adc = 0;
        std::uint8_t rtc = 0;
        std::uint8_t gps = 0;
        std::uint8_t config = 0;
        std::uint8_t cspHandler = 0;
        std::uint8_t fwUpd = 0;
        std::uint8_t fileSystem = 0;
        std::uint8_t fileTransfer = 0;
        std::uint8_t scriptEngine = 0;
        std::uint8_t overcurrentProtection = 0;
        std::uint8_t timeSync = 0;
        std::uint8_t adcs = 0;
        std::uint8_t supervisor = 0;
        std::uint8_t generalTelemetryCollector = 0;
} StartupTelemetry;